{
	"class" : {
		 },
	"instance" : {
		"accept:" : "CiprianTeodorov 11/9/2014 18:41",
		"from" : "CiprianTeodorov 11/7/2014 01:25",
		"from:" : "CiprianTeodorov 11/7/2014 01:24",
		"guard" : "CiprianTeodorov 11/7/2014 01:25",
		"guard:" : "CiprianTeodorov 11/7/2014 01:25",
		"initialize" : "CiprianTeodorov 11/7/2014 01:26",
		"to" : "CiprianTeodorov 11/7/2014 01:25",
		"to:" : "CiprianTeodorov 11/7/2014 01:25",
		"updateB" : "CiprianTeodorov 11/7/2014 01:05",
		"updateB:" : "CiprianTeodorov 11/7/2014 01:05" } }
