{
	"class" : {
		 },
	"instance" : {
		"behaviors" : "CiprianTeodorov 10/25/2014 21:06",
		"behaviors:" : "CiprianTeodorov 10/25/2014 21:06",
		"initialize" : "CiprianTeodorov 10/25/2014 20:58",
		"variables" : "CiprianTeodorov 10/25/2014 21:06",
		"variables:" : "CiprianTeodorov 10/25/2014 21:06" } }
