{
	"category" : "PlugMC-Examples",
	"classinstvars" : [
		 ],
	"classvars" : [
		 ],
	"commentStamp" : "",
	"instvars" : [
		 ],
	"name" : "PlugExamples",
	"pools" : [
		 ],
	"super" : "Object",
	"type" : "normal" }
