{
	"category" : "PlugMC-IMP-Model",
	"classinstvars" : [
		 ],
	"classvars" : [
		 ],
	"commentStamp" : "",
	"instvars" : [
		"lhs",
		"rhs" ],
	"name" : "ImpAssignment",
	"pools" : [
		 ],
	"super" : "ImpStatement",
	"type" : "normal" }
