{
	"category" : "PlugMC-Core",
	"classinstvars" : [
		 ],
	"classvars" : [
		 ],
	"commentStamp" : "",
	"instvars" : [
		"toSee" ],
	"name" : "PlugBFSExplorer",
	"pools" : [
		 ],
	"super" : "PlugExplorer",
	"type" : "normal" }
