{
	"category" : "PlugMC-LTL-Model",
	"classinstvars" : [
		 ],
	"classvars" : [
		 ],
	"commentStamp" : "",
	"instvars" : [
		 ],
	"name" : "LTLNext",
	"pools" : [
		 ],
	"super" : "LTLUnaryExpression",
	"type" : "normal" }
