{
	"category" : "PlugMC-BlockL-Model",
	"classinstvars" : [
		 ],
	"classvars" : [
		 ],
	"commentStamp" : "",
	"instvars" : [
		 ],
	"name" : "PlugBlockExamples",
	"pools" : [
		 ],
	"super" : "Object",
	"type" : "normal" }
