{
	"class" : {
		 },
	"instance" : {
		"explorer" : "CiprianTeodorov 10/29/2014 16:15",
		"explorer:" : "CiprianTeodorov 10/29/2014 16:15",
		"initializeConfiguration:" : "CiprianTeodorov 10/29/2014 16:24",
		"runtime" : "CiprianTeodorov 10/29/2014 16:15",
		"runtime:" : "CiprianTeodorov 10/29/2014 16:15",
		"verifyFrom:to:" : "CiprianTeodorov 10/29/2014 16:24" } }
