{
	"category" : "PlugMC-Core",
	"classinstvars" : [
		 ],
	"classvars" : [
		 ],
	"commentStamp" : "",
	"instvars" : [
		"explorer",
		"runtime" ],
	"name" : "PlugVerifier",
	"pools" : [
		 ],
	"super" : "Object",
	"type" : "normal" }
