{
	"category" : "PlugMC-Predicate-Runtime",
	"classinstvars" : [
		 ],
	"classvars" : [
		 ],
	"commentStamp" : "",
	"instvars" : [
		 ],
	"name" : "PlugPredicateRuntime",
	"pools" : [
		 ],
	"super" : "PlugVerificationRuntime",
	"type" : "normal" }
