{
	"category" : "PlugMC-StaL-Model",
	"classinstvars" : [
		 ],
	"classvars" : [
		 ],
	"commentStamp" : "",
	"instvars" : [
		"from",
		"to",
		"guard",
		"update" ],
	"name" : "StaLTransition",
	"pools" : [
		 ],
	"super" : "StaLElement",
	"type" : "normal" }
