{
	"category" : "PlugMC-StatesML-Model",
	"classinstvars" : [
		 ],
	"classvars" : [
		 ],
	"commentStamp" : "",
	"instvars" : [
		 ],
	"name" : "StatesAndExpression",
	"pools" : [
		 ],
	"super" : "StatesBinaryExpression",
	"type" : "normal" }
