{
	"category" : "PlugMC-Core",
	"classinstvars" : [
		 ],
	"classvars" : [
		 ],
	"commentStamp" : "",
	"instvars" : [
		"predicates",
		"violations" ],
	"name" : "PlugPredicateVerifier",
	"pools" : [
		 ],
	"super" : "PlugVerifier",
	"type" : "normal" }
