{
	"category" : "PlugMC-Buchi-Model",
	"classinstvars" : [
		 ],
	"classvars" : [
		 ],
	"commentStamp" : "",
	"instvars" : [
		"accepting" ],
	"name" : "PlugBuchiState",
	"pools" : [
		 ],
	"super" : "PlugTState",
	"type" : "normal" }
