{
	"category" : "PlugMC-StatesML-Model",
	"classinstvars" : [
		 ],
	"classvars" : [
		 ],
	"commentStamp" : "",
	"instvars" : [
		"variables",
		"states",
		"automaton" ],
	"name" : "StatesProgram",
	"pools" : [
		 ],
	"super" : "StatesMLElement",
	"type" : "normal" }
