{
	"category" : "PlugMC-LTL-Model",
	"classinstvars" : [
		 ],
	"classvars" : [
		 ],
	"commentStamp" : "",
	"instvars" : [
		"lhs",
		"rhs" ],
	"name" : "LTLBinaryExpression",
	"pools" : [
		 ],
	"super" : "LTLExpression",
	"type" : "normal" }
