{
	"category" : "PlugMC-StaL-Model",
	"classinstvars" : [
		 ],
	"classvars" : [
		 ],
	"commentStamp" : "",
	"instvars" : [
		"id" ],
	"name" : "StaLNamedElement",
	"pools" : [
		 ],
	"super" : "StaLElement",
	"type" : "normal" }
