{
	"category" : "PlugMC-TransitionSystem",
	"classinstvars" : [
		 ],
	"classvars" : [
		 ],
	"commentStamp" : "",
	"instvars" : [
		"from",
		"to",
		"guard",
		"atoms" ],
	"name" : "PlugTTransition",
	"pools" : [
		 ],
	"super" : "Object",
	"type" : "normal" }
