{
	"category" : "PlugMC-LTL-Model",
	"classinstvars" : [
		 ],
	"classvars" : [
		 ],
	"commentStamp" : "",
	"instvars" : [
		"atom" ],
	"name" : "LTLAtom",
	"pools" : [
		 ],
	"super" : "LTLElement",
	"type" : "normal" }
