{
	"class" : {
		 },
	"instance" : {
		"=" : "CiprianTeodorov 10/29/2014 21:51",
		"hash" : "CiprianTeodorov 10/29/2014 21:52",
		"observers" : "CiprianTeodorov 10/29/2014 19:09",
		"observers:" : "CiprianTeodorov 10/29/2014 19:09" } }
