{
	"class" : {
		 },
	"instance" : {
		"andOp" : "CiprianTeodorov 11/2/2014 01:29",
		"atomInline" : "CiprianTeodorov 11/2/2014 01:37",
		"binaryBlock" : "CiprianTeodorov 11/2/2014 01:17",
		"char" : "CiprianTeodorov 11/2/2014 01:10",
		"charEscape" : "CiprianTeodorov 11/2/2014 01:37",
		"charHex" : "CiprianTeodorov 11/2/2014 01:10",
		"charNormal" : "CiprianTeodorov 11/2/2014 01:12",
		"formula" : "CiprianTeodorov 11/2/2014 01:15",
		"future" : "CiprianTeodorov 11/2/2014 01:27",
		"globally" : "CiprianTeodorov 11/2/2014 01:27",
		"identifier" : "CiprianTeodorov 11/2/2014 01:04",
		"implies" : "CiprianTeodorov 11/2/2014 01:27",
		"literals" : "CiprianTeodorov 11/2/2014 01:02",
		"ltl" : "CiprianTeodorov 11/2/2014 01:20",
		"next" : "CiprianTeodorov 11/2/2014 01:27",
		"notOp" : "CiprianTeodorov 11/2/2014 01:27",
		"orOp" : "CiprianTeodorov 11/2/2014 01:28",
		"parens" : "CiprianTeodorov 11/2/2014 01:21",
		"start" : "CiprianTeodorov 11/2/2014 01:14",
		"unaryBlock" : "CiprianTeodorov 11/2/2014 01:17",
		"until" : "CiprianTeodorov 11/2/2014 01:28",
		"weakuntil" : "CiprianTeodorov 11/2/2014 01:28" } }
