{
	"class" : {
		 },
	"instance" : {
		"accept:" : "CiprianTeodorov 11/10/2014 22:39",
		"statements" : "CiprianTeodorov 11/10/2014 21:27",
		"statements:" : "CiprianTeodorov 11/10/2014 21:27",
		"variables" : "CiprianTeodorov 11/10/2014 21:27",
		"variables:" : "CiprianTeodorov 11/10/2014 21:27" } }
