{
	"category" : "PlugMC-IMP-Model",
	"classinstvars" : [
		 ],
	"classvars" : [
		 ],
	"commentStamp" : "",
	"instvars" : [
		"variables",
		"statements" ],
	"name" : "ImpProgram",
	"pools" : [
		 ],
	"super" : "ImpNamedElement",
	"type" : "normal" }
