{
	"class" : {
		 },
	"instance" : {
		"binaryBlock" : "CiprianTeodorov 11/10/2014 13:39",
		"expression" : "CiprianTeodorov 11/10/2014 20:39",
		"falseL" : "CiprianTeodorov 11/10/2014 13:39",
		"literals" : "CiprianTeodorov 11/10/2014 13:38",
		"numberL" : "CiprianTeodorov 11/10/2014 14:35",
		"parens" : "CiprianTeodorov 11/10/2014 13:38",
		"start" : "CiprianTeodorov 11/10/2014 20:30",
		"trueL" : "CiprianTeodorov 11/10/2014 13:39",
		"unaryBlock" : "CiprianTeodorov 11/10/2014 13:43",
		"varReference" : "CiprianTeodorov 11/11/2014 14:57" } }
