{
	"category" : "PlugMC-ExpL-Model",
	"classinstvars" : [
		 ],
	"classvars" : [
		 ],
	"commentStamp" : "",
	"instvars" : [
		 ],
	"name" : "ExpLLiteral",
	"pools" : [
		 ],
	"super" : "ExpLExp",
	"type" : "normal" }
