{
	"class" : {
		 },
	"instance" : {
		"buchiAutomaton" : "CiprianTeodorov 10/26/2014 14:52",
		"buchiAutomaton:" : "CiprianTeodorov 10/26/2014 14:52",
		"evaluate:in:runtime:" : "CiprianTeodorov 10/29/2014 17:14",
		"fireableTransitionsFrom:to:runtime:" : "CiprianTeodorov 10/29/2014 16:20",
		"initialConfiguration" : "CiprianTeodorov 10/26/2014 12:11",
		"isEnabled:in:runtime:" : "CiprianTeodorov 10/29/2014 17:14" } }
