{
	"class" : {
		 },
	"instance" : {
		"assign" : "CiprianTeodorov 11/7/2014 00:46",
		"binaryBlock" : "CiprianTeodorov 11/7/2014 00:05",
		"expression" : "CiprianTeodorov 11/7/2014 00:00",
		"falseL" : "CiprianTeodorov 11/7/2014 00:06",
		"guard" : "CiprianTeodorov 11/7/2014 00:35",
		"identifier" : "CiprianTeodorov 11/7/2014 00:07",
		"literals" : "CiprianTeodorov 11/7/2014 00:31",
		"numberL" : "CiprianTeodorov 11/7/2014 00:01",
		"parens" : "CiprianTeodorov 11/7/2014 00:01",
		"program" : "CiprianTeodorov 11/7/2014 00:04",
		"start" : "CiprianTeodorov 11/7/2014 00:04",
		"stateDecl" : "CiprianTeodorov 11/7/2014 00:20",
		"stateReference" : "CiprianTeodorov 11/7/2014 00:32",
		"transition" : "CiprianTeodorov 11/7/2014 00:34",
		"trueL" : "CiprianTeodorov 11/7/2014 00:06",
		"unaryBlock" : "CiprianTeodorov 11/7/2014 00:06",
		"update" : "CiprianTeodorov 11/7/2014 00:35",
		"varDecl" : "CiprianTeodorov 11/7/2014 00:14",
		"varReference" : "CiprianTeodorov 11/7/2014 00:30" } }
