{
	"category" : "PlugMC-StatesML-Parser",
	"classinstvars" : [
		 ],
	"classvars" : [
		 ],
	"commentStamp" : "",
	"instvars" : [
		"parens",
		"literals",
		"expression",
		"trueL",
		"falseL",
		"numberL",
		"identifier",
		"assign",
		"guard",
		"update",
		"stateDecl",
		"varDecl",
		"transition",
		"program",
		"varReference",
		"stateReference" ],
	"name" : "PlugStatesMLGrammar",
	"pools" : [
		 ],
	"super" : "PPCompositeParser",
	"type" : "normal" }
