{
	"category" : "PlugMC-Events",
	"classinstvars" : [
		 ],
	"classvars" : [
		 ],
	"commentStamp" : "",
	"instvars" : [
		 ],
	"name" : "PlugCutEvent",
	"pools" : [
		 ],
	"super" : "PlugEvent",
	"type" : "normal" }
