{
	"class" : {
		 },
	"instance" : {
		"add:" : "CiprianTeodorov 10/25/2014 16:31",
		"add:ifAbsent:" : "CiprianTeodorov 10/25/2014 16:30",
		"configurations" : "CiprianTeodorov 10/28/2014 16:29",
		"includes:" : "CiprianTeodorov 11/1/2014 16:44" } }
