{
	"class" : {
		"dependencies" : "CiprianTeodorov 11/10/2014 21:38",
		"ignoredNames" : "CiprianTeodorov 11/10/2014 21:39" },
	"instance" : {
		"assign" : "CiprianTeodorov 11/10/2014 21:40",
		"expressionGrammar" : "CiprianTeodorov 11/10/2014 22:27",
		"ifStmt" : "CiprianTeodorov 11/10/2014 21:43",
		"initialize" : "CiprianTeodorov 11/10/2014 21:39",
		"markerStmt" : "CiprianTeodorov 11/10/2014 22:32",
		"program" : "CiprianTeodorov 11/10/2014 22:31",
		"skipStmt" : "CiprianTeodorov 11/10/2014 21:43",
		"statement" : "CiprianTeodorov 11/10/2014 21:45",
		"varDecl" : "CiprianTeodorov 11/10/2014 22:33",
		"varReference" : "CiprianTeodorov 11/10/2014 22:33",
		"whileStmt" : "CiprianTeodorov 11/10/2014 21:46" } }
