{
	"category" : "PlugMC-IMP-Parser",
	"classinstvars" : [
		 ],
	"classvars" : [
		 ],
	"commentStamp" : "",
	"instvars" : [
		"variablesDict" ],
	"name" : "ImpParser",
	"pools" : [
		 ],
	"super" : "ImpGrammar",
	"type" : "normal" }
