{
	"class" : {
		"named:" : "CiprianTeodorov 11/2/2014 15:09" },
	"instance" : {
		"accept:" : "CiprianTeodorov 11/2/2014 15:10",
		"atomName" : "CiprianTeodorov 11/2/2014 15:09",
		"atomName:" : "CiprianTeodorov 11/2/2014 15:09",
		"reference" : "CiprianTeodorov 11/2/2014 15:09",
		"reference:" : "CiprianTeodorov 11/2/2014 15:09" } }
