{
	"class" : {
		 },
	"instance" : {
		"accept:" : "CiprianTeodorov 11/9/2014 18:39",
		"lhs" : "CiprianTeodorov 11/7/2014 01:21",
		"lhs:" : "CiprianTeodorov 11/7/2014 01:21",
		"rhs" : "CiprianTeodorov 11/7/2014 01:21",
		"rhs:" : "CiprianTeodorov 11/7/2014 01:21" } }
