{
	"class" : {
		"dependencies" : "CiprianTeodorov 11/10/2014 20:43",
		"ignoredNames" : "CiprianTeodorov 11/10/2014 20:36" },
	"instance" : {
		"assign" : "CiprianTeodorov 11/10/2014 20:17",
		"expressionGrammar" : "CiprianTeodorov 11/11/2014 13:02",
		"initialize" : "CiprianTeodorov 11/11/2014 12:57",
		"program" : "CiprianTeodorov 11/10/2014 20:24",
		"stateDecl" : "CiprianTeodorov 11/11/2014 12:48",
		"stateReference" : "CiprianTeodorov 11/11/2014 12:48",
		"transition" : "CiprianTeodorov 11/10/2014 20:05",
		"varDecl" : "CiprianTeodorov 11/11/2014 12:48",
		"varReference" : "CiprianTeodorov 11/11/2014 12:55" } }
