{
	"category" : "PlugMC-Core",
	"classinstvars" : [
		 ],
	"classvars" : [
		 ],
	"commentStamp" : "CiprianTeodorov 10/26/2014 20:42",
	"instvars" : [
		"transitions" ],
	"name" : "FullTransitionManager",
	"pools" : [
		 ],
	"super" : "TransitionManager",
	"type" : "normal" }
