{
	"category" : "PlugMC-StatesML-Model",
	"classinstvars" : [
		 ],
	"classvars" : [
		 ],
	"commentStamp" : "",
	"instvars" : [
		"lhs",
		"rhs" ],
	"name" : "StatesAssignStmt",
	"pools" : [
		 ],
	"super" : "StatesMLElement",
	"type" : "normal" }
