{
	"category" : "PlugMC-StatesML-Model",
	"classinstvars" : [
		 ],
	"classvars" : [
		 ],
	"commentStamp" : "",
	"instvars" : [
		"id",
		"initial" ],
	"name" : "StatesVarDeclaration",
	"pools" : [
		 ],
	"super" : "StatesMLElement",
	"type" : "normal" }
