{
	"class" : {
		 },
	"instance" : {
		"visitAtom:" : "CiprianTeodorov 11/2/2014 14:47",
		"visitAtomReference:" : "CiprianTeodorov 11/2/2014 15:10",
		"visitBinaryExpression:" : "CiprianTeodorov 11/2/2014 14:46",
		"visitBoolean:" : "CiprianTeodorov 11/3/2014 00:41",
		"visitEventually:" : "CiprianTeodorov 11/2/2014 14:47",
		"visitExpression:" : "CiprianTeodorov 11/2/2014 14:45",
		"visitFalse:" : "CiprianTeodorov 11/3/2014 00:41",
		"visitFormula:" : "CiprianTeodorov 11/2/2014 15:36",
		"visitGlobally:" : "CiprianTeodorov 11/2/2014 14:47",
		"visitLogicalConjunction:" : "CiprianTeodorov 11/2/2014 14:46",
		"visitLogicalDisjunction:" : "CiprianTeodorov 11/2/2014 14:46",
		"visitLogicalEquivalence:" : "CiprianTeodorov 11/2/2014 14:46",
		"visitLogicalImplication:" : "CiprianTeodorov 11/2/2014 14:46",
		"visitLogicalNegation:" : "CiprianTeodorov 11/2/2014 14:47",
		"visitNext:" : "CiprianTeodorov 11/2/2014 14:47",
		"visitRelease:" : "CiprianTeodorov 11/2/2014 14:46",
		"visitTrue:" : "CiprianTeodorov 11/3/2014 00:41",
		"visitUnaryExpression:" : "CiprianTeodorov 11/2/2014 14:47",
		"visitUntil:" : "CiprianTeodorov 11/2/2014 14:46" } }
