{
	"class" : {
		 },
	"instance" : {
		"visitAnd:" : "CiprianTeodorov 11/10/2014 19:36",
		"visitEq:" : "CiprianTeodorov 11/10/2014 19:36",
		"visitFalse:" : "CiprianTeodorov 11/10/2014 19:36",
		"visitGE:" : "CiprianTeodorov 11/10/2014 19:36",
		"visitGT:" : "CiprianTeodorov 11/10/2014 19:36",
		"visitLE:" : "CiprianTeodorov 11/10/2014 19:37",
		"visitLT:" : "CiprianTeodorov 11/10/2014 19:37",
		"visitMinus:" : "CiprianTeodorov 11/10/2014 19:37",
		"visitMod:" : "CiprianTeodorov 11/10/2014 19:37",
		"visitNegation:" : "CiprianTeodorov 11/10/2014 19:38",
		"visitNeq:" : "CiprianTeodorov 11/10/2014 19:38",
		"visitNumber:" : "CiprianTeodorov 11/10/2014 19:38",
		"visitOr:" : "CiprianTeodorov 11/10/2014 19:38",
		"visitPlus:" : "CiprianTeodorov 11/10/2014 19:38",
		"visitTrue:" : "CiprianTeodorov 11/10/2014 19:38",
		"visitVarReference:" : "CiprianTeodorov 11/10/2014 19:39" } }
