{
	"category" : "PlugMC-ExpL-Eval",
	"classinstvars" : [
		 ],
	"classvars" : [
		 ],
	"commentStamp" : "",
	"instvars" : [
		"caller" ],
	"name" : "ExpLEval",
	"pools" : [
		 ],
	"super" : "ExpLAbstractVisitor",
	"type" : "normal" }
