{
	"category" : "PlugMC-TransitionSystem",
	"classinstvars" : [
		 ],
	"classvars" : [
		 ],
	"commentStamp" : "",
	"instvars" : [
		"initial",
		"fanout" ],
	"name" : "PlugTAutomaton",
	"pools" : [
		 ],
	"super" : "Object",
	"type" : "normal" }
